log/waveform_1.vcd
$date
	Mon Nov 18 17:52:48 2024
$end
$version
	Icarus Verilog
$end
$timescale
	1s
$end
$scope module TestBench $end
$var reg 1 ! Clk $end
$var reg 1 " Reset $end
$var integer 32 # counter [31:0] $end
$var integer 32 $ i [31:0] $end
$var integer 32 % outfile [31:0] $end
$scope module CPU $end
$var wire 1 ! clk_i $end
$var wire 1 " rst_i $end
$var wire 5 & rs2 [4:0] $end
$var wire 5 ' rs1 [4:0] $end
$var wire 1 ( reg_write $end
$var wire 32 ) read_data2 [31:0] $end
$var wire 32 * read_data1 [31:0] $end
$var wire 5 + rd [4:0] $end
$var wire 32 , pc_o [31:0] $end
$var wire 32 - pc_i [31:0] $end
$var wire 7 . opcode [6:0] $end
$var wire 32 / mux_out [31:0] $end
$var wire 32 0 instr [31:0] $end
$var wire 32 1 imm_ext [31:0] $end
$var wire 7 2 func7 [6:0] $end
$var wire 3 3 func3 [2:0] $end
$var wire 1 4 alu_src $end
$var wire 32 5 alu_result [31:0] $end
$var wire 1 6 alu_op $end
$var wire 4 7 alu_ctrl [3:0] $end
$scope module ALU $end
$var wire 32 8 operand2_i [31:0] $end
$var wire 32 9 operand1_i [31:0] $end
$var wire 4 : alu_ctrl_i [3:0] $end
$var reg 32 ; result_o [31:0] $end
$upscope $end
$scope module ALU_Control $end
$var wire 3 < func3_i [2:0] $end
$var wire 7 = func7_i [6:0] $end
$var wire 1 6 alu_op_i $end
$var reg 4 > alu_ctrl_o [3:0] $end
$upscope $end
$scope module Add_PC $end
$var wire 32 ? data1_i [31:0] $end
$var wire 32 @ result_o [31:0] $end
$var wire 32 A data0_i [31:0] $end
$upscope $end
$scope module Control $end
$var wire 7 B opcode_i [6:0] $end
$var reg 1 6 alu_op_o $end
$var reg 1 4 alu_src_o $end
$var reg 1 ( reg_write_o $end
$upscope $end
$scope module Instruction_Memory $end
$var wire 32 C instr_o [31:0] $end
$var wire 32 D addr_i [31:0] $end
$upscope $end
$scope module MUX_ALUSrc $end
$var wire 1 4 select_i $end
$var wire 32 E data_o [31:0] $end
$var wire 32 F data1_i [31:0] $end
$var wire 32 G data0_i [31:0] $end
$upscope $end
$scope module PC $end
$var wire 1 ! clk_i $end
$var wire 32 H pc_i [31:0] $end
$var wire 1 " rst_i $end
$var reg 32 I pc_o [31:0] $end
$upscope $end
$scope module Registers $end
$var wire 5 J RDaddr_i [4:0] $end
$var wire 32 K RDdata_i [31:0] $end
$var wire 5 L RS1addr_i [4:0] $end
$var wire 32 M RS1data_o [31:0] $end
$var wire 5 N RS2addr_i [4:0] $end
$var wire 32 O RS2data_o [31:0] $end
$var wire 1 ( RegWrite_i $end
$var wire 1 ! clk_i $end
$var wire 1 " rst_i $end
$var integer 32 P i [31:0] $end
$upscope $end
$scope module Sign_Extend $end
$var wire 12 Q instr_i [11:0] $end
$var wire 32 R data_o [31:0] $end
$upscope $end
$upscope $end
$upscope $end
$enddefinitions $end
#0
$dumpvars
b10000001101 R
b10000001101 Q
b100000 P
b0 O
b1101 N
b0 M
b10011 L
b0 K
b11 J
b0 I
b100 H
b0 G
b10000001101 F
b10000001101 E
b0 D
b1000000110110011101000110010011 C
b10011 B
b0 A
b100 @
b100 ?
b111 >
b100000 =
b101 <
b0 ;
b111 :
b0 9
b10000001101 8
b111 7
16
b0 5
14
b101 3
b100000 2
b10000001101 1
b1000000110110011101000110010011 0
b10000001101 /
b10011 .
b100 -
b0 ,
b11 +
b0 *
b0 )
1(
b10011 '
b1101 &
b11 %
b100000000 $
b0 #
0"
0!
$end
#12
1"
#25
b10000000000 /
b10000000000 8
b10000000000 E
b10000000000 1
b10000000000 F
b10000000000 R
b10000000000 Q
b0 &
b0 N
b1001 '
b1001 L
b1001 +
b1001 J
b1000000000001001101010010010011 0
b1000000000001001101010010010011 C
b1000 -
b1000 @
b1000 H
b100 ,
b100 A
b100 D
b100 I
b1 #
1!
#50
0!
#75
b11111111111111111111100110100000 5
b11111111111111111111100110100000 ;
b11111111111111111111100110100000 K
b10 7
b10 :
b10 >
b11111111111111111111100110100000 /
b11111111111111111111100110100000 8
b11111111111111111111100110100000 E
b11111111111111111111100110100000 1
b11111111111111111111100110100000 F
b11111111111111111111100110100000 R
b100110100000 Q
b1001101 2
b1001101 =
b10111 '
b10111 L
b0 3
b0 <
b11110 +
b11110 J
b10011010000010111000111100010011 0
b10011010000010111000111100010011 C
b1100 -
b1100 @
b1100 H
b1000 ,
b1000 A
b1000 D
b1000 I
b10 #
1!
#100
0!
#125
b0 5
b0 ;
b0 K
b111 7
b111 :
b111 >
b10000001010 /
b10000001010 8
b10000001010 E
b10000001010 1
b10000001010 F
b10000001010 R
b10000001010 Q
b100000 2
b100000 =
b1010 &
b1010 N
b11010 '
b11010 L
b101 3
b101 <
b11 +
b11 J
b1000000101011010101000110010011 0
b1000000101011010101000110010011 C
b10000 -
b10000 @
b10000 H
b1100 ,
b1100 A
b1100 D
b1100 I
b11 #
1!
#150
0!
#175
b1000 7
b1000 :
b1000 >
04
06
b0 /
b0 8
b0 E
b100100 1
b100100 F
b100100 R
b100100 Q
b1 2
b1 =
b100 &
b100 N
b110 '
b110 L
b0 3
b0 <
b10001 +
b10001 J
b110011 .
b110011 B
b10010000110000100010110011 0
b10010000110000100010110011 C
b10100 -
b10100 @
b10100 H
b10000 ,
b10000 A
b10000 D
b10000 I
b100 #
1!
#200
0!
#225
b11 7
b11 :
b11 >
b1111 1
b1111 F
b1111 R
b1111 Q
b0 2
b0 =
b1111 &
b1111 N
b10 '
b10 L
b1 3
b1 <
b10110 +
b10110 J
b111100010001101100110011 0
b111100010001101100110011 C
b11000 -
b11000 @
b11000 H
b10100 ,
b10100 A
b10100 D
b10100 I
b101 #
1!
#250
0!
#275
b1101 '
b1101 L
b1 +
b1 J
b111101101001000010110011 0
b111101101001000010110011 C
b11100 -
b11100 @
b11100 H
b11000 ,
b11000 A
b11000 D
b11000 I
b110 #
1!
#300
0!
#325
b10000001001 /
b10000001001 8
b10000001001 E
b111 7
b111 :
b111 >
14
16
b10000001001 1
b10000001001 F
b10000001001 R
b10000001001 Q
b100000 2
b100000 =
b1001 &
b1001 N
b11000 '
b11000 L
b101 3
b101 <
b11001 +
b11001 J
b10011 .
b10011 B
b1000000100111000101110010010011 0
b1000000100111000101110010010011 C
b100000 -
b100000 @
b100000 H
b11100 ,
b11100 A
b11100 D
b11100 I
b111 #
1!
#350
0!
#375
b1000 7
b1000 :
b1000 >
04
06
b0 /
b0 8
b0 E
b110111 1
b110111 F
b110111 R
b110111 Q
b1 2
b1 =
b10111 &
b10111 N
b10111 '
b10111 L
b0 3
b0 <
b1000 +
b1000 J
b110011 .
b110011 B
b11011110111000010000110011 0
b11011110111000010000110011 C
b100100 -
b100100 @
b100100 H
b100000 ,
b100000 A
b100000 D
b100000 I
b1000 #
1!
#400
0!
#425
b11 7
b11 :
b11 >
b10111 1
b10111 F
b10111 R
b10111 Q
b0 2
b0 =
b10000 '
b10000 L
b1 3
b1 <
b10 +
b10 J
b1011110000001000100110011 0
b1011110000001000100110011 C
b101000 -
b101000 @
b101000 H
b100100 ,
b100100 A
b100100 D
b100100 I
b1001 #
1!
#450
0!
#475
b1010110111 5
b1010110111 ;
b1010110111 K
b1010110111 /
b1010110111 8
b1010110111 E
b10 7
b10 :
b10 >
14
16
b1010110111 1
b1010110111 F
b1010110111 R
b1010110111 Q
b10101 2
b10101 =
b10100 '
b10100 L
b0 3
b0 <
b1000 +
b1000 J
b10011 .
b10011 B
b101011011110100000010000010011 0
b101011011110100000010000010011 C
b101100 -
b101100 @
b101100 H
b101000 ,
b101000 A
b101000 D
b101000 I
b1010 #
1!
#500
0!
#525
b0 5
b0 ;
b0 K
b111 7
b111 :
b111 >
b10000000011 /
b10000000011 8
b10000000011 E
b10000000011 1
b10000000011 F
b10000000011 R
b10000000011 Q
b100000 2
b100000 =
b11 &
b11 N
b1101 '
b1101 L
b101 3
b101 <
b1100 +
b1100 J
b1000000001101101101011000010011 0
b1000000001101101101011000010011 C
b110000 -
b110000 @
b110000 H
b101100 ,
b101100 A
b101100 D
b101100 I
b1011 #
1!
#550
0!
#575
b11 7
b11 :
b11 >
04
06
b0 /
b0 8
b0 E
b10 1
b10 F
b10 R
b10 Q
b0 2
b0 =
b10 &
b10 N
b11000 '
b11000 L
b1 3
b1 <
b1010 +
b1010 J
b110011 .
b110011 B
b1011000001010100110011 0
b1011000001010100110011 C
b110100 -
b110100 @
b110100 H
b110000 ,
b110000 A
b110000 D
b110000 I
b1100 #
1!
#600
0!
#625
b0 5
b0 ;
b0 K
b1000 7
b1000 :
b1000 >
b101010 1
b101010 F
b101010 R
b101010 Q
b1 2
b1 =
b1010 &
b1010 N
b1010110111 *
b1010110111 9
b1010110111 M
b1000 '
b1000 L
b0 3
b0 <
b100 +
b100 J
b10101001000000001000110011 0
b10101001000000001000110011 C
b111000 -
b111000 @
b111000 H
b110100 ,
b110100 A
b110100 D
b110100 I
b1101 #
1!
#650
0!
#675
b110001 1
b110001 F
b110001 R
b110001 Q
b10001 &
b10001 N
b0 *
b0 9
b0 M
b10011 '
b10011 L
b11010 +
b11010 J
b11000110011000110100110011 0
b11000110011000110100110011 C
b111100 -
b111100 @
b111100 H
b111000 ,
b111000 A
b111000 D
b111000 I
b1110 #
1!
#700
0!
#725
b10001001010 5
b10001001010 ;
b10001001010 K
b10001001010 /
b10001001010 8
b10001001010 E
b10 7
b10 :
b10 >
14
16
b10001001010 1
b10001001010 F
b10001001010 R
b10001001010 Q
b100010 2
b100010 =
b1010 &
b1010 N
b11011 '
b11011 L
b1 +
b1 J
b10011 .
b10011 B
b1000100101011011000000010010011 0
b1000100101011011000000010010011 C
b1000000 -
b1000000 @
b1000000 H
b111100 ,
b111100 A
b111100 D
b111100 I
b1111 #
1!
#750
0!
#775
b11111111111111111111110111110011 5
b11111111111111111111110111110011 ;
b11111111111111111111110111110011 K
b11111111111111111111100110101001 /
b11111111111111111111100110101001 8
b11111111111111111111100110101001 E
b11111111111111111111100110101001 1
b11111111111111111111100110101001 F
b11111111111111111111100110101001 R
b100110101001 Q
b1001101 2
b1001101 =
b1001 &
b1001 N
b10001001010 *
b10001001010 9
b10001001010 M
b1 '
b1 L
b10111 +
b10111 J
b10011010100100001000101110010011 0
b10011010100100001000101110010011 C
b1000100 -
b1000100 @
b1000100 H
b1000000 ,
b1000000 A
b1000000 D
b1000000 I
b10000 #
1!
#800
0!
#825
b0 5
b0 ;
b0 K
b111 7
b111 :
b111 >
b10000000001 /
b10000000001 8
b10000000001 E
b10000000001 1
b10000000001 F
b10000000001 R
b10000000001 Q
b100000 2
b100000 =
b10001001010 )
b10001001010 G
b10001001010 O
b1 &
b1 N
b0 *
b0 9
b0 M
b1100 '
b1100 L
b101 3
b101 <
b10011 +
b10011 J
b1000000000101100101100110010011 0
b1000000000101100101100110010011 C
b1001000 -
b1001000 @
b1001000 H
b1000100 ,
b1000100 A
b1000100 D
b1000100 I
b10001 #
1!
#850
0!
#875
b10000001101 /
b10000001101 8
b10000001101 E
b10000001101 1
b10000001101 F
b10000001101 R
b10000001101 Q
b0 )
b0 G
b0 O
b1101 &
b1101 N
b1101 '
b1101 L
b10100 +
b10100 J
b1000000110101101101101000010011 0
b1000000110101101101101000010011 C
b1001100 -
b1001100 @
b1001100 H
b1001000 ,
b1001000 A
b1001000 D
b1001000 I
b10010 #
1!
#900
0!
#925
b11 7
b11 :
b11 >
04
06
b0 /
b0 8
b0 E
b10010 1
b10010 F
b10010 R
b10010 Q
b0 2
b0 =
b10010 &
b10010 N
b10100 '
b10100 L
b1 3
b1 <
b11110 +
b11110 J
b110011 .
b110011 B
b1001010100001111100110011 0
b1001010100001111100110011 C
b1010000 -
b1010000 @
b1010000 H
b1001100 ,
b1001100 A
b1001100 D
b1001100 I
b10011 #
1!
#950
0!
#975
b0 5
b0 ;
b0 K
b1000 7
b1000 :
b1000 >
b101101 1
b101101 F
b101101 R
b101101 Q
b1 2
b1 =
b1101 &
b1101 N
b11111111111111111111110111110011 *
b11111111111111111111110111110011 9
b11111111111111111111110111110011 M
b10111 '
b10111 L
b0 3
b0 <
b10100 +
b10100 J
b10110110111000101000110011 0
b10110110111000101000110011 C
b1010100 -
b1010100 @
b1010100 H
b1010000 ,
b1010000 A
b1010000 D
b1010000 I
b10100 #
1!
#1000
0!
#1025
b10000001100 /
b10000001100 8
b10000001100 E
b111 7
b111 :
b111 >
14
16
b10000001100 1
b10000001100 F
b10000001100 R
b10000001100 Q
b100000 2
b100000 =
b1100 &
b1100 N
b0 *
b0 9
b0 M
b1001 '
b1001 L
b101 3
b101 <
b110 +
b110 J
b10011 .
b10011 B
b1000000110001001101001100010011 0
b1000000110001001101001100010011 C
b1011000 -
b1011000 @
b1011000 H
b1010100 ,
b1010100 A
b1010100 D
b1010100 I
b10101 #
1!
#1050
0!
#1075
b11 7
b11 :
b11 >
04
06
b0 /
b0 8
b0 E
b110 1
b110 F
b110 R
b110 Q
b0 2
b0 =
b110 &
b110 N
b1111 '
b1111 L
b1 3
b1 <
b10011 +
b10011 J
b110011 .
b110011 B
b11001111001100110110011 0
b11001111001100110110011 C
b1011100 -
b1011100 @
b1011100 H
b1011000 ,
b1011000 A
b1011000 D
b1011000 I
b10110 #
1!
#1100
0!
#1125
b10000001010 /
b10000001010 8
b10000001010 E
b111 7
b111 :
b111 >
14
16
b10000001010 1
b10000001010 F
b10000001010 R
b10000001010 Q
b100000 2
b100000 =
b1010 &
b1010 N
b11001 '
b11001 L
b101 3
b101 <
b111 +
b111 J
b10011 .
b10011 B
b1000000101011001101001110010011 0
b1000000101011001101001110010011 C
b1100000 -
b1100000 @
b1100000 H
b1011100 ,
b1011100 A
b1011100 D
b1011100 I
b10111 #
1!
#1150
0!
#1175
b10000001001 /
b10000001001 8
b10000001001 E
b10000001001 1
b10000001001 F
b10000001001 R
b10000001001 Q
b1001 &
b1001 N
b101 '
b101 L
b10100 +
b10100 J
b1000000100100101101101000010011 0
b1000000100100101101101000010011 C
b1100100 -
b1100100 @
b1100100 H
b1100000 ,
b1100000 A
b1100000 D
b1100000 I
b11000 #
1!
#1200
0!
#1225
b10101 5
b10101 ;
b10101 K
b10000000101 /
b10000000101 8
b10000000101 E
b10000000101 1
b10000000101 F
b10000000101 R
b10000000101 Q
b101 &
b101 N
b1010110111 *
b1010110111 9
b1010110111 M
b1000 '
b1000 L
b1000 +
b1000 J
b1000000010101000101010000010011 0
b1000000010101000101010000010011 C
b1101000 -
b1101000 @
b1101000 H
b1100100 ,
b1100100 A
b1100100 D
b1100100 I
b11001 #
1!
#1250
0!
#1275
b0 5
b0 ;
b0 K
b10000001100 /
b10000001100 8
b10000001100 E
b10000001100 1
b10000001100 F
b10000001100 R
b10000001100 Q
b1100 &
b1100 N
b0 '
b0 L
b0 +
b0 J
b1000000110000000101000000010011 0
b1000000110000000101000000010011 C
b1101100 -
b1101100 @
b1101100 H
b1101000 ,
b1101000 A
b1101000 D
b1101000 I
b0 *
b0 9
b0 M
b11010 #
1!
#1300
0!
#1325
b11111111111111111111100000000010 5
b11111111111111111111100000000010 ;
b11111111111111111111100000000010 K
b10 7
b10 :
b10 >
b11111111111111111111100000000010 /
b11111111111111111111100000000010 8
b11111111111111111111100000000010 E
b11111111111111111111100000000010 1
b11111111111111111111100000000010 F
b11111111111111111111100000000010 R
b100000000010 Q
b1000000 2
b1000000 =
b10 &
b10 N
b10001 '
b10001 L
b0 3
b0 <
b10110 +
b10110 J
b10000000001010001000101100010011 0
b10000000001010001000101100010011 C
b1110000 -
b1110000 @
b1110000 H
b1101100 ,
b1101100 A
b1101100 D
b1101100 I
b11011 #
1!
#1350
0!
#1375
b10001001 5
b10001001 ;
b10001001 K
b111 7
b111 :
b111 >
b10000000011 /
b10000000011 8
b10000000011 E
b10000000011 1
b10000000011 F
b10000000011 R
b10000000011 Q
b100000 2
b100000 =
b11 &
b11 N
b10001001010 *
b10001001010 9
b10001001010 M
b1 '
b1 L
b101 3
b101 <
b11011 +
b11011 J
b1000000001100001101110110010011 0
b1000000001100001101110110010011 C
b1110100 -
b1110100 @
b1110100 H
b1110000 ,
b1110000 A
b1110000 D
b1110000 I
b11100 #
1!
#1400
0!
#1425
b0 5
b0 ;
b0 K
b11 7
b11 :
b11 >
04
06
b0 /
b0 8
b0 E
b1001 1
b1001 F
b1001 R
b1001 Q
b0 2
b0 =
b1001 &
b1001 N
b0 *
b0 9
b0 M
b10100 '
b10100 L
b1 3
b1 <
b10101 +
b10101 J
b110011 .
b110011 B
b100110100001101010110011 0
b100110100001101010110011 C
b1111000 -
b1111000 @
b1111000 H
b1110100 ,
b1110100 A
b1110100 D
b1110100 I
b11101 #
1!
#1450
0!
#1475
b0 5
b0 ;
b0 K
b1000 7
b1000 :
b1000 >
b101110 1
b101110 F
b101110 R
b101110 Q
b1 2
b1 =
b1110 &
b1110 N
b10101 *
b10101 9
b10101 M
b1000 '
b1000 L
b0 3
b0 <
b10000 +
b10000 J
b10111001000000100000110011 0
b10111001000000100000110011 C
b1111100 -
b1111100 @
b1111100 H
b1111000 ,
b1111000 A
b1111000 D
b1111000 I
b11110 #
1!
#1500
0!
#1525
b10101 /
b10101 8
b10101 E
b101000 1
b101000 F
b101000 R
b101000 Q
b10101 )
b10101 G
b10101 O
b1000 &
b1000 N
b0 *
b0 9
b0 M
b1101 '
b1101 L
b11101 +
b11101 J
b10100001101000111010110011 0
b10100001101000111010110011 C
b10000000 -
b10000000 @
b10000000 H
b1111100 ,
b1111100 A
b1111100 D
b1111100 I
1!
